#FIG 3.2  Produced by xfig version 3.2.5b
Landscape
Center
Metric
A4      
100.00
Single
-2
1200 2
2 1 0 1 0 7 50 -1 -1 0.000 0 0 -1 0 0 2
	 225 2250 4500 2250
2 1 2 1 0 7 50 -1 -1 3.000 0 0 -1 0 0 2
	 3825 1845 3825 2250
2 1 2 1 0 7 50 -1 -1 3.000 0 0 -1 0 0 2
	 810 3060 810 2250
2 1 0 1 0 7 50 -1 -1 0.000 0 0 -1 0 0 2
	 450 1125 450 3375
3 0 0 1 1 7 48 -1 -1 0.000 0 0 0 5
	 810 3060 1710 2610 2160 1935 3015 1710 3825 1845
	 0.000 1.000 1.000 1.000 0.000
4 1 0 50 -1 -1 12 0.0000 6 210 525 3825 2475 $x_2$\001
4 1 0 50 -1 -1 12 0.0000 6 210 525 810 2205 $x_1$\001
4 1 0 50 -1 -1 12 0.0000 6 210 735 765 3285 $f(x_1)$\001
4 1 0 50 -1 -1 12 0.0000 6 210 735 3825 1755 $f(x_2)$\001
4 1 0 50 -1 -1 12 0.0000 6 180 315 4500 2475 $x$\001
4 1 0 50 -1 -1 12 0.0000 6 180 360 1935 2520 $x'$\001
4 2 0 50 -1 -1 12 0.0000 6 210 525 405 1215 $f(x)$\001
