#FIG 3.2  Produced by xfig version 3.2.5b
Landscape
Center
Metric
A4      
100.00
Single
-2
1200 2
2 1 0 1 0 7 50 -1 -1 0.000 0 0 -1 0 0 2
	 1800 0 1800 3600
2 1 0 1 0 7 50 -1 -1 0.000 0 0 -1 0 0 2
	 0 1800 3600 1800
2 1 0 2 0 7 50 -1 -1 0.000 0 0 -1 1 0 2
	0 0 1.00 60.00 120.00
	 1800 1800 2655 990
2 1 0 2 0 7 50 -1 -1 0.000 0 0 -1 1 0 2
	0 0 1.00 60.00 120.00
	 1800 1800 2565 135
2 1 1 1 0 7 50 -1 -1 4.000 0 0 -1 0 0 2
	 90 3420 3510 180
4 0 0 50 -1 -1 12 0.0000 6 165 705 2520 495 $\\vec b$\001
4 0 0 50 -1 -1 12 0.0000 6 180 1245 2295 1530 $\\mat A_{:,0}$\001
